[
    {
    "post_id": 787,
    "asset_type": "Course/Session",
    "Name": "",
    "Address": "Neuadd Bentref Llanbedr, Llanbedr",
    "Latitude": 52.8215,
    "Longitude": -4.097316,
    "Postcode": "LL45 2NW",
    "Location": "Abermaw",
    "Contact info": "Rachel - 07495 353103 Daniel - 07854 690529",
    "Support": "",
    "spt_int_url": "https://www.citizensonline.org.uk/",
    "open_days": [
      "5"
    ],
    "spt_course_cost": "",
    "spt_course_duration": "wythnosol (ond cysylltwch cyn mynychiad cyntaf)",
    "spt_course_act_type": "di"
  },
  {
    "post_id": 503,
    "asset_type": "Internet Access",
    "Name": "",
    "Address": "Caffi Hafan, Ffordd Deiniol Bangor",
    "Latitude": 53.226432,
    "Longitude": -4.130362,
    "Postcode": "LL57 1DT",
    "Location": "Bangor",
    "Contact info": "Ebost: info@acgm.co.uk Ffôn: 01286 677 711",
    "Support": 2,
    "spt_int_url": "https://www.ageuk.org.uk/cymraeg/gwyneddamon/Ein-Gwasanaethau/Canolfan-galw-i-mewn-Hafan/",
    "open_days": [
      "1",
      "2",
      "3",
      "4",
      "5"
    ],
    "spt_course_cost": "",
    "spt_course_duration": "",
    "spt_course_act_type": ""
  }
]